{
    "asset" : {
        "generator" : "Khronos glTF Blender I/O v1.5.17",
        "version" : "2.0"
    },
    "extensionsUsed" : [
        "KHR_lights_punctual"
    ],
    "extensionsRequired" : [
        "KHR_lights_punctual"
    ],
    "extensions" : {
        "KHR_lights_punctual" : {
            "lights" : [
                {
                    "color" : [
                        1,
                        1,
                        1
                    ],
                    "intensity" : 10,
                    "type" : "directional",
                    "name" : "Sun"
                }
            ]
        }
    },
    "scene" : 0,
    "scenes" : [
        {
            "name" : "Scene",
            "nodes" : [
                0,
                1,
                3,
                5
            ]
        }
    ],
    "nodes" : [
        {
            "mesh" : 0,
            "name" : "lamppost",
            "rotation" : [
                0,
                0.7071068286895752,
                0,
                0.7071067094802856
            ],
            "scale" : [
                0.047350406646728516,
                0.047350406646728516,
                0.047350406646728516
            ]
        },
        {
            "mesh" : 1,
            "name" : "sidewalk",
            "scale" : [
                0.047350406646728516,
                0.047350406646728516,
                0.047350406646728516
            ]
        },
        {
            "camera" : 0,
            "name" : "Camera_Orientation",
            "rotation" : [
                -0.7071067690849304,
                0,
                0,
                0.7071067690849304
            ]
        },
        {
            "children" : [
                2
            ],
            "name" : "Camera",
            "rotation" : [
                0.5465223789215088,
                0.0515773631632328,
                -0.03375164419412613,
                0.8351731300354004
            ],
            "translation" : [
                0.6878870725631714,
                3.8330299854278564,
                5.688272953033447
            ]
        },
        {
            "extensions" : {
                "KHR_lights_punctual" : {
                    "light" : 0
                }
            },
            "name" : "Sun_Orientation",
            "rotation" : [
                -0.7071067690849304,
                0,
                0,
                0.7071067690849304
            ]
        },
        {
            "children" : [
                4
            ],
            "name" : "Sun",
            "rotation" : [
                0.11395712196826935,
                -0.08847429603338242,
                -0.31644800305366516,
                0.9375749230384827
            ],
            "translation" : [
                6.7301506996154785,
                12.536554336547852,
                0
            ]
        }
    ],
    "cameras" : [
        {
            "name" : "Camera",
            "perspective" : {
                "aspectRatio" : 1.7777777777777777,
                "yfov" : 0.39959652046304894,
                "zfar" : 1000,
                "znear" : 0.10000000149011612
            },
            "type" : "perspective"
        }
    ],
    "materials" : [
        {
            "doubleSided" : true,
            "name" : "lamppost",
            "normalTexture" : {
                "index" : 0
            },
            "pbrMetallicRoughness" : {
                "baseColorTexture" : {
                    "index" : 1
                },
                "metallicFactor" : 0.8863636255264282,
                "metallicRoughnessTexture" : {
                    "index" : 2
                }
            }
        },
        {
            "doubleSided" : true,
            "name" : "sidewalk",
            "normalTexture" : {
                "index" : 3
            },
            "pbrMetallicRoughness" : {
                "baseColorTexture" : {
                    "index" : 4
                },
                "metallicFactor" : 0,
                "metallicRoughnessTexture" : {
                    "index" : 5
                }
            }
        }
    ],
    "meshes" : [
        {
            "name" : "Mesh",
            "primitives" : [
                {
                    "attributes" : {
                        "POSITION" : 0,
                        "NORMAL" : 1,
                        "TEXCOORD_0" : 2
                    },
                    "indices" : 3,
                    "material" : 0
                }
            ]
        },
        {
            "name" : "Mesh.001",
            "primitives" : [
                {
                    "attributes" : {
                        "POSITION" : 4,
                        "NORMAL" : 5,
                        "TEXCOORD_0" : 6
                    },
                    "indices" : 7,
                    "material" : 1
                }
            ]
        }
    ],
    "textures" : [
        {
            "sampler" : 0,
            "source" : 0
        },
        {
            "sampler" : 0,
            "source" : 1
        },
        {
            "sampler" : 0,
            "source" : 2
        },
        {
            "sampler" : 0,
            "source" : 3
        },
        {
            "sampler" : 0,
            "source" : 4
        },
        {
            "sampler" : 0,
            "source" : 5
        }
    ],
    "images" : [
        {
            "mimeType" : "image/png",
            "name" : "TexturesCom_Metal_Corroded_1K_normal",
            "uri" : "TexturesCom_Metal_Corroded_1K_normal.png"
        },
        {
            "mimeType" : "image/png",
            "name" : "TexturesCom_Metal_Corroded_1K_albedo",
            "uri" : "TexturesCom_Metal_Corroded_1K_albedo.png"
        },
        {
            "mimeType" : "image/png",
            "name" : "TexturesCom_Metal_Corroded_1K_roughness",
            "uri" : "TexturesCom_Metal_Corroded_1K_roughness.png"
        },
        {
            "mimeType" : "image/png",
            "name" : "TexturesCom_ConcreteSidewalk6_2x2_1K_normal",
            "uri" : "TexturesCom_ConcreteSidewalk6_2x2_1K_normal.png"
        },
        {
            "mimeType" : "image/png",
            "name" : "TexturesCom_ConcreteSidewalk6_2x2_1K_albedo",
            "uri" : "TexturesCom_ConcreteSidewalk6_2x2_1K_albedo.png"
        },
        {
            "mimeType" : "image/png",
            "name" : "TexturesCom_ConcreteSidewalk6_2x2_1K_roughness",
            "uri" : "TexturesCom_ConcreteSidewalk6_2x2_1K_roughness.png"
        }
    ],
    "accessors" : [
        {
            "bufferView" : 0,
            "componentType" : 5126,
            "count" : 4020,
            "max" : [
                87.87045288085938,
                227.85304260253906,
                10
            ],
            "min" : [
                -10,
                0,
                -10
            ],
            "type" : "VEC3"
        },
        {
            "bufferView" : 1,
            "componentType" : 5126,
            "count" : 4020,
            "type" : "VEC3"
        },
        {
            "bufferView" : 2,
            "componentType" : 5126,
            "count" : 4020,
            "type" : "VEC2"
        },
        {
            "bufferView" : 3,
            "componentType" : 5123,
            "count" : 4020,
            "type" : "SCALAR"
        },
        {
            "bufferView" : 4,
            "componentType" : 5126,
            "count" : 828,
            "max" : [
                437.82781982421875,
                0,
                33.707088470458984
            ],
            "min" : [
                -437.8277587890625,
                -5.80382776260376,
                -33.707088470458984
            ],
            "type" : "VEC3"
        },
        {
            "bufferView" : 5,
            "componentType" : 5126,
            "count" : 828,
            "type" : "VEC3"
        },
        {
            "bufferView" : 6,
            "componentType" : 5126,
            "count" : 828,
            "type" : "VEC2"
        },
        {
            "bufferView" : 7,
            "componentType" : 5123,
            "count" : 828,
            "type" : "SCALAR"
        }
    ],
    "bufferViews" : [
        {
            "buffer" : 0,
            "byteLength" : 48240,
            "byteOffset" : 0
        },
        {
            "buffer" : 0,
            "byteLength" : 48240,
            "byteOffset" : 48240
        },
        {
            "buffer" : 0,
            "byteLength" : 32160,
            "byteOffset" : 96480
        },
        {
            "buffer" : 0,
            "byteLength" : 8040,
            "byteOffset" : 128640
        },
        {
            "buffer" : 0,
            "byteLength" : 9936,
            "byteOffset" : 136680
        },
        {
            "buffer" : 0,
            "byteLength" : 9936,
            "byteOffset" : 146616
        },
        {
            "buffer" : 0,
            "byteLength" : 6624,
            "byteOffset" : 156552
        },
        {
            "buffer" : 0,
            "byteLength" : 1656,
            "byteOffset" : 163176
        }
    ],
    "samplers" : [
        {
            "magFilter" : 9729,
            "minFilter" : 9987
        }
    ],
    "buffers" : [
        {
            "byteLength" : 164832,
            "uri" : "scene1.bin"
        }
    ]
}
